{
  "installed": {
    "client_id": "369599752614-qjq3muqk59g54dtm4v3o2s8pajp9ddvb.apps.googleusercontent.com",
    "project_id": "prime-tractor-166506",
    "auth_uri": "https://accounts.google.com/o/oauth2/auth",
    "token_uri": "https://accounts.google.com/o/oauth2/token",
    "auth_provider_x509_cert_url": "https://www.googleapis.com/oauth2/v1/certs",
    "client_secret": "YqHRYqP6wTAkMI0W7gmsiCVW",
    "redirect_uris": [
      "urn:ietf:wg:oauth:2.0:oob",
      "http://localhost"
    ]
  }
}